<svg width="24" height="24" viewBox="0 0 24 24" fill="none" xmlns="http://www.w3.org/2000/svg">
<path fill-rule="evenodd" clip-rule="evenodd" d="M12 9.75C11.4033 9.75 10.831 9.98705 10.409 10.409C9.98705 10.831 9.75 11.4033 9.75 12C9.75 12.5967 9.98705 13.169 10.409 13.591C10.831 14.0129 11.4033 14.25 12 14.25C12.5967 14.25 13.169 14.0129 13.591 13.591C14.0129 13.169 14.25 12.5967 14.25 12C14.25 11.4033 14.0129 10.831 13.591 10.409C13.169 9.98705 12.5967 9.75 12 9.75ZM9.34835 9.34835C10.0516 8.64509 11.0054 8.25 12 8.25C12.9946 8.25 13.9484 8.64509 14.6517 9.34835C15.3549 10.0516 15.75 11.0054 15.75 12C15.75 12.9946 15.3549 13.9484 14.6517 14.6517C13.9484 15.3549 12.9946 15.75 12 15.75C11.0054 15.75 10.0516 15.3549 9.34835 14.6517C8.64509 13.9484 8.25 12.9946 8.25 12C8.25 11.0054 8.64509 10.0516 9.34835 9.34835Z" fill="#959AB2"/>
<path fill-rule="evenodd" clip-rule="evenodd" d="M3.25024 12.0002C4.49616 15.637 7.94594 18.2502 12.0029 18.2502C16.0609 18.2502 19.5097 15.637 20.7556 12.0002C19.5097 8.36345 16.0609 5.75024 12.0029 5.75024C7.94594 5.75024 4.49616 8.36349 3.25024 12.0002ZM1.74539 11.7755C3.11475 7.41487 7.18901 4.25024 12.0029 4.25024C16.8179 4.25024 20.8911 7.41492 22.2605 11.7755C22.3064 11.9218 22.3064 12.0787 22.2605 12.2249C20.8911 16.5856 16.8179 19.7502 12.0029 19.7502C7.18901 19.7502 3.11475 16.5856 1.74539 12.2249C1.69945 12.0787 1.69945 11.9218 1.74539 11.7755Z" fill="#959AB2"/>
</svg>
