<svg width="10" height="19" viewBox="0 0 10 19" fill="none" xmlns="http://www.w3.org/2000/svg">
<path d="M8.71493 0H1.28507C0.574002 0 0 0.620363 0 1.38405V17.6173C0 18.3803 0.574002 19 1.28507 19H8.71493C9.42471 19 10 18.3803 10 17.6173V1.38405C10 0.620363 9.42471 0 8.71493 0ZM3.16667 0.840536H6.83462C6.92729 0.840536 7.00257 0.989396 7.00257 1.17357C7.00257 1.35774 6.92729 1.50729 6.83462 1.50729H3.16667C3.07336 1.50729 2.99936 1.35774 2.99936 1.17357C2.99936 0.989396 3.07336 0.840536 3.16667 0.840536ZM5.00064 17.634C4.54826 17.634 4.18018 17.2379 4.18018 16.7505C4.18018 16.2631 4.54826 15.8684 5.00064 15.8684C5.45174 15.8684 5.81982 16.2631 5.81982 16.7505C5.81982 17.2379 5.45174 17.634 5.00064 17.634ZM9.03732 14.609H0.96332V2.33536H9.03732V14.609Z" fill="white"/>
</svg>
