<svg width="16" height="19" viewBox="0 0 16 19" fill="none" xmlns="http://www.w3.org/2000/svg">
<path d="M0.824471 18.3586C0.94753 18.4268 1.08352 18.4607 1.21939 18.4607C1.36944 18.4607 1.51928 18.4192 1.65113 18.3369L14.6848 10.1908C14.923 10.042 15.0677 9.78093 15.0677 9.50006C15.0677 9.21918 14.923 8.95813 14.6848 8.80927L1.65113 0.663149C1.39996 0.506147 1.08346 0.497893 0.824471 0.641426C0.56548 0.785014 0.404785 1.0578 0.404785 1.35394V17.6461C0.404785 17.9422 0.56548 18.215 0.824471 18.3586Z" fill="#FFFCFC"/>
</svg>
